{
  "IcoMoonType": "selection",
  "icons": [
    {
      "icon": {
        "paths": [
          "M892.785 194.108c24.654-27.297 22.033-70.053-3.88-96.204-25.796-26.029-68.704-29.038-96.053-4.498-22.266 19.976-42.254 42.487-63.045 63.666l99.928 99.72c21.052-20.766 43.191-40.695 63.050-62.684zM363.020 896.996h-214.547c14.713-5.936 29.383-11.974 43.969-18.205 20.381-8.704 38.248-21.443 54.087-37.306 181.544-181.834 363.256-363.502 545.016-545.117 2.615-2.613 6.394-4.054 8.468-5.33l-103.146-103.775c-2.285 2.692-4.554 5.788-7.24 8.473-176.649 176.738-353.117 353.66-530.257 529.908-24.97 24.84-43.827 52.796-57.060 84.952-12.752 30.981-25.090 62.132-37.613 93.205l0.003 7.066c0.674 0.909 1.208 1.599 1.753 2.28l-0.124-0.161c-1.036 2.629-1.637 5.674-1.637 8.859 0 0.005 0 0.010 0 0.015l-0-0.001c0 13.73 11.13 24.86 24.862 24.86h273.466c13.73 0 24.861-11.13 24.861-24.86 0-13.732-11.13-24.863-24.861-24.863zM934.818 896.996h-472.353c-13.73 0-24.861 11.13-24.861 24.862 0 13.73 11.13 24.86 24.86 24.86h472.356c13.73 0 24.861-11.13 24.861-24.86s-11.131-24.862-24.862-24.862z"
        ],
        "attrs": [
          {}
        ],
        "isMulticolor": false,
        "isMulticolor2": false,
        "grid": 0,
        "tags": [
          "笔"
        ]
      },
      "attrs": [
        {}
      ],
      "properties": {
        "order": 2,
        "id": 5,
        "name": "pen",
        "prevSize": 32,
        "code": 59648
      },
      "setIdx": 0,
      "setId": 2,
      "iconIdx": 0
    },
    {
      "icon": {
        "paths": [
          "M680.143 962.938l-449.867-452.010 447.668-449.867 59.806 60.088-387.863 389.779 390.061 391.922z"
        ],
        "attrs": [
          {}
        ],
        "isMulticolor": false,
        "isMulticolor2": false,
        "tags": [
          "back"
        ],
        "grid": 0,
        "colorPermutations": {
          "226227124113913112552552551": [
            {}
          ]
        }
      },
      "attrs": [
        {}
      ],
      "properties": {
        "order": 4,
        "id": 4,
        "name": "back",
        "prevSize": 32,
        "code": 59652
      },
      "setIdx": 1,
      "setId": 1,
      "iconIdx": 15
    }
  ],
  "height": 1024,
  "metadata": {
    "name": "icomoon"
  },
  "preferences": {
    "showGlyphs": true,
    "showCodes": true,
    "showQuickUse": true,
    "showQuickUse2": true,
    "showSVGs": true,
    "fontPref": {
      "prefix": "icon-",
      "metadata": {
        "fontFamily": "icomoon"
      },
      "metrics": {
        "emSize": 1024,
        "baseline": 6.25,
        "whitespace": 50
      },
      "embed": false
    },
    "imagePref": {
      "prefix": "icon-",
      "png": true,
      "useClassSelector": true,
      "color": 0,
      "bgColor": 16777215
    },
    "historySize": 50
  }
}